{
  "total_items": 10,
  "total_pages": 10,
  "page_number": 1,
  "size": 1,
  "first_page": true,
  "last_page": false,
  "empty": false,
  "contents": [
    {
      "id": 1234,
      "name": "Example Organization Inc.",
      "description": "Example Org is a non-profit organization dedicated to providing services to qualified beneficiaries",
      "email": "email@example.com",
      "website": "http://example.com",
      "logo": "https://openreferral.org/wp-content/uploads/2018/02/OpenReferral_Logo_Green-4-1.png"
    }
  ]
}