{
  "total_items": 10,
  "total_pages": 10,
  "page_number": 1,
  "size": 1,
  "first_page": true,
  "last_page": false,
  "empty": false,
  "contents": [
    {
      "id": "service-id-1234",
      "location": {
        "id": 1234,
        "url": "http://example.com",
        "name": "MyCity Civic Center",
        "description": "MyCity Civic Center is located on Main Street and contains facilities for a number of civic and community services available.",
        "latitude": 100,
        "longitude": 101
      },
      "service": {
        "id": "ac148810-d857-441c-9679-408f346de14b",
        "name": "Community Counselling",
        "description": "Counselling Services provided by trained professionals. Suitable for people with mental health conditions such as anxiety, depression, or eating disorders as well as people experiencing difficult life events and circumstances. ",
        "status": "active",
        "fees_description": "Non-NHS patients are expected to pay for their counselling sessions. We charge a flat rate per hour of counselling. The current rate is \u00a350 per hour. Please see our website for up to date prices.",
        "fees": "fees_description",
        "minimum_age": 12,
        "maximum_age": 100,
        "assured_date": "2005-01-01",
        "assurer_email": "email@example.com",
        "last_modified": "2023-03-15T10:30:45.123Z"
      }
    }
  ]
}